{
  "project_info": {
    "project_number": "162491485348",
    "firebase_url": "https://cbd4u-24d6d.firebaseio.com",
    "project_id": "cbd4u-24d6d",
    "storage_bucket": "cbd4u-24d6d.appspot.com"
  },
  "client": [
    {
      "client_info": {
        "mobilesdk_app_id": "1:162491485348:android:032da79ea223692a3f6a31",
        "android_client_info": {
          "package_name": "com.example.cbd4u"
        }
      },
      "oauth_client": [
        {
          "client_id": "162491485348-pn4jsu1m7spbl0roaboulo594mlp30a9.apps.googleusercontent.com",
          "client_type": 1,
          "android_info": {
            "package_name": "com.example.cbd4u",
            "certificate_hash": "3da002bda034d9818994083ae7a3b66fb74eece9"
          }
        },
        {
          "client_id": "162491485348-k59d81a0lci63mbpphbeauoq1vjr0qmo.apps.googleusercontent.com",
          "client_type": 1,
          "android_info": {
            "package_name": "com.example.cbd4u",
            "certificate_hash": "67301da43e860ca16dc796b8644cf29674724ab2"
          }
        },
        {
          "client_id": "162491485348-8dreu102e85u7vlbt7ujcj9bgumis6lj.apps.googleusercontent.com",
          "client_type": 3
        }
      ],
      "api_key": [
        {
          "current_key": "AIzaSyB_n_wL8jpMzPvEKOVCpMf-_3QOuiFKU0Y"
        }
      ],
      "services": {
        "appinvite_service": {
          "other_platform_oauth_client": [
            {
              "client_id": "162491485348-8dreu102e85u7vlbt7ujcj9bgumis6lj.apps.googleusercontent.com",
              "client_type": 3
            }
          ]
        }
      }
    },
    {
      "client_info": {
        "mobilesdk_app_id": "1:162491485348:android:f048c8d01861489d3f6a31",
        "android_client_info": {
          "package_name": "com.example.cbd4u_admin"
        }
      },
      "oauth_client": [
        {
          "client_id": "162491485348-8dreu102e85u7vlbt7ujcj9bgumis6lj.apps.googleusercontent.com",
          "client_type": 3
        }
      ],
      "api_key": [
        {
          "current_key": "AIzaSyB_n_wL8jpMzPvEKOVCpMf-_3QOuiFKU0Y"
        }
      ],
      "services": {
        "appinvite_service": {
          "other_platform_oauth_client": [
            {
              "client_id": "162491485348-8dreu102e85u7vlbt7ujcj9bgumis6lj.apps.googleusercontent.com",
              "client_type": 3
            }
          ]
        }
      }
    }
  ],
  "configuration_version": "1"
}