{
  "project_info": {
    "project_number": "940619685270",
    "firebase_url": "https://compassionate-buds-dispensary.firebaseio.com",
    "project_id": "compassionate-buds-dispensary",
    "storage_bucket": "compassionate-buds-dispensary.appspot.com"
  },
  "client": [
    {
      "client_info": {
        "mobilesdk_app_id": "1:940619685270:android:f2b87bf95590163fc111b7",
        "android_client_info": {
          "package_name": "com.example.compassionatebudsdispensary"
        }
      },
      "oauth_client": [
        {
          "client_id": "940619685270-vf48pbki8ko2r19qu770hh7sh3tfrrc2.apps.googleusercontent.com",
          "client_type": 3
        }
      ],
      "api_key": [
        {
          "current_key": "AIzaSyDfVtk6qA6hQm-MTYbY9F0hQSB4WIMB6uw"
        }
      ],
      "services": {
        "appinvite_service": {
          "other_platform_oauth_client": [
            {
              "client_id": "940619685270-vf48pbki8ko2r19qu770hh7sh3tfrrc2.apps.googleusercontent.com",
              "client_type": 3
            }
          ]
        }
      }
    }
  ],
  "configuration_version": "1"
}